<?xml version="1.0" encoding="UTF-8"?><svg xmlns="http://www.w3.org/2000/svg" xmlns:xlink="http://www.w3.org/1999/xlink" fill-opacity="1" color-rendering="auto" color-interpolation="auto" stroke="black" text-rendering="auto" stroke-linecap="square" width="330" stroke-miterlimit="10" stroke-opacity="1" shape-rendering="auto" fill="black" stroke-dasharray="none" font-weight="normal" stroke-width="1" height="235" font-family="'Dialog'" font-style="normal" stroke-linejoin="miter" font-size="12" stroke-dashoffset="0" image-rendering="auto">
  <!--Generated by ySVG 2.5-->
  <defs id="genericDefs"/>
  <g>
    <defs id="defs1">
      <linearGradient x1="127.5" gradientUnits="userSpaceOnUse" x2="227.5" y1="0" y2="40" id="linearGradient1" spreadMethod="reflect">
        <stop stop-opacity="1" stop-color="rgb(232,238,247)" offset="0%"/>
        <stop stop-opacity="1" stop-color="rgb(183,201,227)" offset="100%"/>
      </linearGradient>
      <linearGradient x1="15" gradientUnits="userSpaceOnUse" x2="115" y1="90" y2="130" id="linearGradient2" spreadMethod="reflect">
        <stop stop-opacity="1" stop-color="rgb(232,238,247)" offset="0%"/>
        <stop stop-opacity="1" stop-color="rgb(183,201,227)" offset="100%"/>
      </linearGradient>
      <linearGradient x1="175" gradientUnits="userSpaceOnUse" x2="275" y1="90" y2="130" id="linearGradient3" spreadMethod="reflect">
        <stop stop-opacity="1" stop-color="rgb(232,238,247)" offset="0%"/>
        <stop stop-opacity="1" stop-color="rgb(183,201,227)" offset="100%"/>
      </linearGradient>
      <linearGradient x1="55" gradientUnits="userSpaceOnUse" x2="155" y1="165" y2="205" id="linearGradient4" spreadMethod="reflect">
        <stop stop-opacity="1" stop-color="rgb(232,238,247)" offset="0%"/>
        <stop stop-opacity="1" stop-color="rgb(183,201,227)" offset="100%"/>
      </linearGradient>
      <linearGradient x1="215" gradientUnits="userSpaceOnUse" x2="315" y1="165" y2="205" id="linearGradient5" spreadMethod="reflect">
        <stop stop-opacity="1" stop-color="rgb(232,238,247)" offset="0%"/>
        <stop stop-opacity="1" stop-color="rgb(183,201,227)" offset="100%"/>
      </linearGradient>
      <clipPath clipPathUnits="userSpaceOnUse" id="clipPath1">
        <path d="M0 0 L330 0 L330 235 L0 235 L0 0 Z"/>
      </clipPath>
      <clipPath clipPathUnits="userSpaceOnUse" id="clipPath2">
        <path d="M0 -15 L330 -15 L330 220 L0 220 L0 -15 Z"/>
      </clipPath>
    </defs>
    <g fill="white" text-rendering="geometricPrecision" shape-rendering="geometricPrecision" transform="translate(0,15)" stroke="white">
      <rect x="0" width="330" height="235" y="-15" clip-path="url(#clipPath2)" stroke="none"/>
    </g>
    <g fill="url(#linearGradient1)" text-rendering="geometricPrecision" shape-rendering="geometricPrecision" transform="matrix(1,0,0,1,0,15)" stroke="url(#linearGradient1)">
      <rect x="127.5" y="0" clip-path="url(#clipPath2)" width="100" rx="20" ry="20" height="40" stroke="none"/>
    </g>
    <g text-rendering="geometricPrecision" stroke-miterlimit="1.45" shape-rendering="geometricPrecision" transform="matrix(1,0,0,1,0,15)" stroke-linecap="butt">
      <rect x="127.5" y="0" clip-path="url(#clipPath2)" fill="none" width="100" rx="20" ry="20" height="40"/>
      <text x="166.5635" xml:space="preserve" y="24.1543" font-family="sans-serif" clip-path="url(#clipPath2)" stroke="none">Idle</text>
    </g>
    <g fill="url(#linearGradient2)" text-rendering="geometricPrecision" shape-rendering="geometricPrecision" transform="matrix(1,0,0,1,0,15)" stroke="url(#linearGradient2)">
      <rect x="15" y="90" clip-path="url(#clipPath2)" width="100" rx="20" ry="20" height="40" stroke="none"/>
    </g>
    <g text-rendering="geometricPrecision" stroke-miterlimit="1.45" shape-rendering="geometricPrecision" transform="matrix(1,0,0,1,0,15)" stroke-linecap="butt">
      <rect x="15" y="90" clip-path="url(#clipPath2)" fill="none" width="100" rx="20" ry="20" height="40"/>
      <text x="30.0459" xml:space="preserve" y="114.1543" font-family="sans-serif" clip-path="url(#clipPath2)" stroke="none">Read NAND</text>
    </g>
    <g fill="url(#linearGradient3)" text-rendering="geometricPrecision" shape-rendering="geometricPrecision" transform="matrix(1,0,0,1,0,15)" stroke="url(#linearGradient3)">
      <rect x="175" y="90" clip-path="url(#clipPath2)" width="100" rx="20" ry="20" height="40" stroke="none"/>
    </g>
    <g text-rendering="geometricPrecision" stroke-miterlimit="1.45" shape-rendering="geometricPrecision" transform="matrix(1,0,0,1,0,15)" stroke-linecap="butt">
      <rect x="175" y="90" clip-path="url(#clipPath2)" fill="none" width="100" rx="20" ry="20" height="40"/>
      <text x="194.4785" xml:space="preserve" y="114.1543" font-family="sans-serif" clip-path="url(#clipPath2)" stroke="none">Read PCIe</text>
    </g>
    <g fill="url(#linearGradient4)" text-rendering="geometricPrecision" shape-rendering="geometricPrecision" transform="matrix(1,0,0,1,0,15)" stroke="url(#linearGradient4)">
      <rect x="55" y="165" clip-path="url(#clipPath2)" width="100" rx="20" ry="20" height="40" stroke="none"/>
    </g>
    <g text-rendering="geometricPrecision" stroke-miterlimit="1.45" shape-rendering="geometricPrecision" transform="matrix(1,0,0,1,0,15)" stroke-linecap="butt">
      <rect x="55" y="165" clip-path="url(#clipPath2)" fill="none" width="100" rx="20" ry="20" height="40"/>
      <text x="73.7139" xml:space="preserve" y="189.1543" font-family="sans-serif" clip-path="url(#clipPath2)" stroke="none">Write PCIe</text>
    </g>
    <g fill="url(#linearGradient5)" text-rendering="geometricPrecision" shape-rendering="geometricPrecision" transform="matrix(1,0,0,1,0,15)" stroke="url(#linearGradient5)">
      <rect x="215" y="165" clip-path="url(#clipPath2)" width="100" rx="20" ry="20" height="40" stroke="none"/>
    </g>
    <g text-rendering="geometricPrecision" stroke-miterlimit="1.45" shape-rendering="geometricPrecision" transform="matrix(1,0,0,1,0,15)" stroke-linecap="butt">
      <rect x="215" y="165" clip-path="url(#clipPath2)" fill="none" width="100" rx="20" ry="20" height="40"/>
      <text x="229.2812" xml:space="preserve" y="189.1543" font-family="sans-serif" clip-path="url(#clipPath2)" stroke="none">Write NAND</text>
    </g>
    <g text-rendering="geometricPrecision" stroke-miterlimit="1.45" shape-rendering="geometricPrecision" transform="matrix(1,0,0,1,0,15)" stroke-linecap="butt">
      <path fill="none" d="M140 38.5666 L140 47.5891 L139.4727 49.326 L137.8906 50.8313 L135.2539 52.1051 L131.5625 53.1473 L121.0156 54.5368 L106.25 55 L98.75 55 L90.8398 55.2461 L83.9844 55.9844 L78.1836 57.2148 L73.4375 58.9375 L69.7461 61.1523 L67.1094 63.8594 L65.5273 67.0586 L65 70.75 L65 81.9624" clip-path="url(#clipPath2)"/>
    </g>
    <g text-rendering="geometricPrecision" stroke-miterlimit="1.45" shape-rendering="geometricPrecision" transform="matrix(1,0,0,1,0,15)" stroke-linecap="butt">
      <path d="M65 89.9624 L70 77.9624 L65 80.9624 L60 77.9624 Z" clip-path="url(#clipPath2)" stroke="none"/>
      <path fill="none" d="M190 40 L190 56.5 L190.2461 59.6641 L190.9844 62.4062 L192.2148 64.7266 L193.9375 66.625 L196.1523 68.1016 L198.8594 69.1562 L205.75 70 L209.25 70 L216.1406 70.5625 L221.0625 72.25 L222.7852 73.5156 L224.0156 75.0625 L224.7539 76.8906 L225 79 L225 81.957" clip-path="url(#clipPath2)"/>
      <path d="M225 89.957 L230 77.957 L225 80.957 L220 77.957 Z" clip-path="url(#clipPath2)" stroke="none"/>
      <path fill="none" d="M65 130 L65 138.25 L65.4219 141.2031 L66.6875 143.3125 L68.7969 144.5781 L71.75 145 L73.25 145 L76.2031 145.5625 L78.3125 147.25 L79.5781 150.0625 L80 154 L80 156.957" clip-path="url(#clipPath2)"/>
      <path d="M80 164.957 L85 152.957 L80 155.957 L75 152.957 Z" clip-path="url(#clipPath2)" stroke="none"/>
      <path fill="none" d="M130 164.9745 L130 112.75 L130.2461 102.7305 L130.9844 94.0469 L132.2148 86.6992 L133.9375 80.6875 L136.1523 76.0117 L138.8594 72.6719 L142.0586 70.668 L145.75 70 L149.25 70 L156.1406 69.1562 L158.8477 68.1016 L161.0625 66.625 L162.7852 64.7266 L164.0156 62.4062 L164.7539 59.6641 L165 56.5 L165 48" clip-path="url(#clipPath2)"/>
      <path d="M165 40 L160 52 L165 49 L170 52 Z" clip-path="url(#clipPath2)" stroke="none"/>
      <path fill="none" d="M225 130 L225 138.25 L225.4219 141.2031 L226.6875 143.3125 L228.7969 144.5781 L231.75 145 L233.25 145 L236.2031 145.5625 L238.3125 147.25 L239.5781 150.0625 L240 154 L240 156.957" clip-path="url(#clipPath2)"/>
      <path d="M240 164.957 L245 152.957 L240 155.957 L235 152.957 Z" clip-path="url(#clipPath2)" stroke="none"/>
      <path fill="none" d="M290 164.9705 L290 104.5 L289.4727 92.8984 L287.8906 82.8438 L285.2539 74.3359 L281.5625 67.375 L276.8164 61.9609 L271.0156 58.0938 L264.1602 55.7734 L256.25 55 L248.75 55 L233.9844 54.5368 L223.4375 53.1473 L219.7461 52.1051 L217.1094 50.8313 L215.5273 49.326 L215 47.5891 L215 46.5666" clip-path="url(#clipPath2)"/>
      <path d="M215 38.5666 L210 50.5666 L215 47.5666 L220 50.5666 Z" clip-path="url(#clipPath2)" stroke="none"/>
    </g>
  </g>
</svg>
