<?xml version="1.0" encoding="UTF-8"?><svg xmlns="http://www.w3.org/2000/svg" xmlns:xlink="http://www.w3.org/1999/xlink" fill-opacity="1" color-rendering="auto" color-interpolation="auto" stroke="black" text-rendering="auto" stroke-linecap="square" width="410" stroke-miterlimit="10" stroke-opacity="1" shape-rendering="auto" fill="black" stroke-dasharray="none" font-weight="normal" stroke-width="1" height="235" font-family="'Dialog'" font-style="normal" stroke-linejoin="miter" font-size="12" stroke-dashoffset="0" image-rendering="auto">
  <!--Generated by ySVG 2.5-->
  <defs id="genericDefs"/>
  <g>
    <defs id="defs1">
      <linearGradient x1="130" gradientUnits="userSpaceOnUse" x2="290" y1="0" y2="40" id="linearGradient1" spreadMethod="reflect">
        <stop stop-opacity="1" stop-color="rgb(232,238,247)" offset="0%"/>
        <stop stop-opacity="1" stop-color="rgb(183,201,227)" offset="100%"/>
      </linearGradient>
      <linearGradient x1="235" gradientUnits="userSpaceOnUse" x2="395" y1="90" y2="130" id="linearGradient2" spreadMethod="reflect">
        <stop stop-opacity="1" stop-color="rgb(232,238,247)" offset="0%"/>
        <stop stop-opacity="1" stop-color="rgb(183,201,227)" offset="100%"/>
      </linearGradient>
      <linearGradient x1="15" gradientUnits="userSpaceOnUse" x2="175" y1="90" y2="130" id="linearGradient3" spreadMethod="reflect">
        <stop stop-opacity="1" stop-color="rgb(232,238,247)" offset="0%"/>
        <stop stop-opacity="1" stop-color="rgb(183,201,227)" offset="100%"/>
      </linearGradient>
      <linearGradient x1="70" gradientUnits="userSpaceOnUse" x2="230" y1="165" y2="205" id="linearGradient4" spreadMethod="reflect">
        <stop stop-opacity="1" stop-color="rgb(232,238,247)" offset="0%"/>
        <stop stop-opacity="1" stop-color="rgb(183,201,227)" offset="100%"/>
      </linearGradient>
      <clipPath clipPathUnits="userSpaceOnUse" id="clipPath1">
        <path d="M0 0 L410 0 L410 235 L0 235 L0 0 Z"/>
      </clipPath>
      <clipPath clipPathUnits="userSpaceOnUse" id="clipPath2">
        <path d="M0 -15 L410 -15 L410 220 L0 220 L0 -15 Z"/>
      </clipPath>
    </defs>
    <g fill="white" text-rendering="geometricPrecision" shape-rendering="geometricPrecision" transform="translate(0,15)" stroke="white">
      <rect x="0" width="410" height="235" y="-15" clip-path="url(#clipPath2)" stroke="none"/>
    </g>
    <g fill="url(#linearGradient1)" text-rendering="geometricPrecision" shape-rendering="geometricPrecision" transform="matrix(1,0,0,1,0,15)" stroke="url(#linearGradient1)">
      <rect x="130" y="0" clip-path="url(#clipPath2)" width="160" rx="20" ry="20" height="40" stroke="none"/>
    </g>
    <g text-rendering="geometricPrecision" stroke-miterlimit="1.45" shape-rendering="geometricPrecision" transform="matrix(1,0,0,1,0,15)" stroke-linecap="butt">
      <rect x="130" y="0" clip-path="url(#clipPath2)" fill="none" width="160" rx="20" ry="20" height="40"/>
      <text x="199.0635" xml:space="preserve" y="24.1543" font-family="sans-serif" clip-path="url(#clipPath2)" stroke="none">Idle</text>
    </g>
    <g fill="url(#linearGradient2)" text-rendering="geometricPrecision" shape-rendering="geometricPrecision" transform="matrix(1,0,0,1,0,15)" stroke="url(#linearGradient2)">
      <rect x="235" y="90" clip-path="url(#clipPath2)" width="160" rx="20" ry="20" height="40" stroke="none"/>
    </g>
    <g text-rendering="geometricPrecision" stroke-miterlimit="1.45" shape-rendering="geometricPrecision" transform="matrix(1,0,0,1,0,15)" stroke-linecap="butt">
      <rect x="235" y="90" clip-path="url(#clipPath2)" fill="none" width="160" rx="20" ry="20" height="40"/>
      <text x="243.5332" xml:space="preserve" y="114.1543" font-family="sans-serif" clip-path="url(#clipPath2)" stroke="none">Execute ASQ Command</text>
    </g>
    <g fill="url(#linearGradient3)" text-rendering="geometricPrecision" shape-rendering="geometricPrecision" transform="matrix(1,0,0,1,0,15)" stroke="url(#linearGradient3)">
      <rect x="15" y="90" clip-path="url(#clipPath2)" width="160" rx="20" ry="20" height="40" stroke="none"/>
    </g>
    <g text-rendering="geometricPrecision" stroke-miterlimit="1.45" shape-rendering="geometricPrecision" transform="matrix(1,0,0,1,0,15)" stroke-linecap="butt">
      <rect x="15" y="90" clip-path="url(#clipPath2)" fill="none" width="160" rx="20" ry="20" height="40"/>
      <text x="46.0244" xml:space="preserve" y="114.1543" font-family="sans-serif" clip-path="url(#clipPath2)" stroke="none">ISQ Check Abort</text>
    </g>
    <g fill="url(#linearGradient4)" text-rendering="geometricPrecision" shape-rendering="geometricPrecision" transform="matrix(1,0,0,1,0,15)" stroke="url(#linearGradient4)">
      <rect x="70" y="165" clip-path="url(#clipPath2)" width="160" rx="20" ry="20" height="40" stroke="none"/>
    </g>
    <g text-rendering="geometricPrecision" stroke-miterlimit="1.45" shape-rendering="geometricPrecision" transform="matrix(1,0,0,1,0,15)" stroke-linecap="butt">
      <rect x="70" y="165" clip-path="url(#clipPath2)" fill="none" width="160" rx="20" ry="20" height="40"/>
      <text x="113.6133" xml:space="preserve" y="189.1543" font-family="sans-serif" clip-path="url(#clipPath2)" stroke="none">Execute ISQ</text>
    </g>
    <g text-rendering="geometricPrecision" stroke-miterlimit="1.45" shape-rendering="geometricPrecision" transform="matrix(1,0,0,1,0,15)" stroke-linecap="butt">
      <path fill="none" d="M230 40 L230 56.5 L230.3164 59.6641 L231.2656 62.4062 L232.8477 64.7266 L235.0625 66.625 L237.9102 68.1016 L241.3906 69.1562 L250.25 70 L254.75 70 L263.6094 70.5625 L269.9375 72.25 L272.1523 73.5156 L273.7344 75.0625 L274.6836 76.8906 L275 79 L275 81.957" clip-path="url(#clipPath2)"/>
    </g>
    <g text-rendering="geometricPrecision" stroke-miterlimit="1.45" shape-rendering="geometricPrecision" transform="matrix(1,0,0,1,0,15)" stroke-linecap="butt">
      <path d="M275 89.957 L280 77.957 L275 80.957 L270 77.957 Z" clip-path="url(#clipPath2)" stroke="none"/>
      <path fill="none" d="M355 89.9624 L355 70.75 L354.4023 67.0586 L352.6094 63.8594 L349.6211 61.1523 L345.4375 58.9375 L340.0586 57.2148 L333.4844 55.9844 L325.7148 55.2461 L316.75 55 L308.25 55 L291.5156 54.5781 L279.5625 53.3125 L275.3789 52.3633 L272.3906 51.2031 L270.5977 49.832 L270 48.25 L270 48" clip-path="url(#clipPath2)"/>
      <path d="M270 40 L265 52 L270 49 L275 52 Z" clip-path="url(#clipPath2)" stroke="none"/>
      <path fill="none" d="M150 40 L150 48.25 L149.6133 49.832 L148.4531 51.2031 L146.5195 52.3633 L143.8125 53.3125 L136.0781 54.5781 L125.25 55 L119.75 55 L113.9492 55.2461 L108.9219 55.9844 L104.668 57.2148 L101.1875 58.9375 L98.4805 61.1523 L96.5469 63.8594 L95.3867 67.0586 L95 70.75 L95 81.9624" clip-path="url(#clipPath2)"/>
      <path d="M95 89.9624 L100 77.9624 L95 80.9624 L90 77.9624 Z" clip-path="url(#clipPath2)" stroke="none"/>
      <path fill="none" d="M95 130 L95 138.25 L95.4219 141.2031 L96.6875 143.3125 L98.7969 144.5781 L101.75 145 L103.25 145 L106.2031 145.5625 L108.3125 147.25 L109.5781 150.0625 L110 154 L110 156.957" clip-path="url(#clipPath2)"/>
      <path d="M110 164.957 L115 152.957 L110 155.957 L105 152.957 Z" clip-path="url(#clipPath2)" stroke="none"/>
      <path fill="none" d="M190 164.9695 L190 48" clip-path="url(#clipPath2)"/>
      <path d="M190 40 L185 52 L190 49 L195 52 Z" clip-path="url(#clipPath2)" stroke="none"/>
    </g>
  </g>
</svg>
